/*---------------------------------------------------------
Theme Name: Notify | Responsive Multipurpose Email Template With Online Email Builder
Theme URI: http://Weekly.grapestheme.com/
Author: Grapestheme
Author Email: grapestheme@gmail.com
Author URI: http://themeforest.net/user/Grapestheme
Description: Notify | Responsive Multipurpose Email Template With Online Email Builder
Version: 3.2
License: ThemeForest Regular & Extended License
License URI: http://themeforest.net/licenses/regular-extended
---------------------------------------------------------*/

Builder Link = http://tekton.grapestheme.com/71022111/index.php
Username = notify
Password = weekly@1014

/*---------------------------------------------------------